<?xml version="1.0" encoding="UTF-8" standalone="no"?>
<!-- Created with Inkscape (http://www.inkscape.org/) -->

<svg
   xmlns:dc="http://purl.org/dc/elements/1.1/"
   xmlns:cc="http://creativecommons.org/ns#"
   xmlns:rdf="http://www.w3.org/1999/02/22-rdf-syntax-ns#"
   xmlns:svg="http://www.w3.org/2000/svg"
   xmlns="http://www.w3.org/2000/svg"
   xmlns:sodipodi="http://sodipodi.sourceforge.net/DTD/sodipodi-0.dtd"
   xmlns:inkscape="http://www.inkscape.org/namespaces/inkscape"
   width="640"
   height="960"
   id="svg2"
   version="1.1"
   inkscape:version="0.48.1 r9760"
   sodipodi:docname="landscape_warn.svg"
   inkscape:export-filename="/Users/jhess/Documents/Trabalho de Conclusão de Curso/iAR/trunk/Images/landscape_warn@2x.png"
   inkscape:export-xdpi="90"
   inkscape:export-ydpi="90">
  <defs
     id="defs4" />
  <sodipodi:namedview
     id="base"
     pagecolor="#000000"
     bordercolor="#666666"
     borderopacity="1.0"
     inkscape:pageopacity="1"
     inkscape:pageshadow="2"
     inkscape:zoom="0.49895833"
     inkscape:cx="320"
     inkscape:cy="480"
     inkscape:document-units="px"
     inkscape:current-layer="layer1"
     showgrid="false"
     inkscape:window-width="1280"
     inkscape:window-height="697"
     inkscape:window-x="0"
     inkscape:window-y="0"
     inkscape:window-maximized="1">
    <inkscape:grid
       type="xygrid"
       id="grid3857"
       empspacing="5"
       visible="true"
       enabled="true"
       snapvisiblegridlinesonly="true" />
  </sodipodi:namedview>
  <metadata
     id="metadata7">
    <rdf:RDF>
      <cc:Work
         rdf:about="">
        <dc:format>image/svg+xml</dc:format>
        <dc:type
           rdf:resource="http://purl.org/dc/dcmitype/StillImage" />
        <dc:title></dc:title>
      </cc:Work>
    </rdf:RDF>
  </metadata>
  <g
     inkscape:label="Layer 1"
     inkscape:groupmode="layer"
     id="layer1"
     transform="translate(0,-92.36218)">
    <g
       id="g3836"
       transform="matrix(4.1871934,0,0,4.1871934,-1877.9545,-3163.1448)"
       style="fill:#ffffff;stroke:#ffffff">
      <rect
         ry="7"
         rx="7"
         y="832.66986"
         x="495.07693"
         height="118.91364"
         width="59.692307"
         id="rect3052"
         style="fill:#ffffff;stroke:none" />
      <rect
         y="851.81897"
         x="499.07693"
         height="80.615387"
         width="51.692307"
         id="rect3822"
         style="fill:#000000;stroke:none" />
      <path
         transform="translate(0.153862,572.36218)"
         d="m 530.76923,369.07693 c 0,3.31371 -2.6863,6 -6,6 -3.31371,0 -6,-2.68629 -6,-6 0,-3.3137 2.68629,-6 6,-6 3.3137,0 6,2.6863 6,6 z"
         sodipodi:ry="6"
         sodipodi:rx="6"
         sodipodi:cy="369.07693"
         sodipodi:cx="524.76923"
         id="path3824"
         style="fill:#000000;stroke:none"
         sodipodi:type="arc" />
      <path
         transform="translate(0,572.36218)"
         d="m 515.69229,269.07693 c 0,0.76471 -0.61991,1.38462 -1.38461,1.38462 -0.7647,0 -1.38462,-0.61991 -1.38462,-1.38462 0,-0.7647 0.61992,-1.38461 1.38462,-1.38461 0.7647,0 1.38461,0.61991 1.38461,1.38461 z"
         sodipodi:ry="1.3846154"
         sodipodi:rx="1.3846154"
         sodipodi:cy="269.07693"
         sodipodi:cx="514.30768"
         id="path3826"
         style="fill:#000000;stroke:none"
         sodipodi:type="arc" />
      <rect
         ry="1"
         rx="1"
         y="840.0545"
         x="519.84619"
         height="2.7692308"
         width="10.153846"
         id="rect3830"
         style="fill:#000000;stroke:none" />
      <path
         style="fill:#ffffff;stroke:none"
         d="m 536.53727,892.12669 -9.95501,-9.95501 0,6.63667 -13.27334,0 0,6.63667 13.27334,0 0,6.63668 9.95501,-9.95501 z"
         id="path3859"
         inkscape:connector-curvature="0" />
    </g>
    <text
       xml:space="preserve"
       style="font-size:40px;font-style:normal;font-weight:normal;line-height:125%;letter-spacing:0px;word-spacing:0px;fill:#000000;fill-opacity:1;stroke:none;font-family:Sans"
       x="912.95752"
       y="-20"
       id="text3845"
       sodipodi:linespacing="125%"
       transform="matrix(0,1,-1,0,0,0)"><tspan
         sodipodi:role="line"
         id="tspan3847"
         x="912.95752"
         y="-20"
         style="font-size:100px;font-style:normal;font-variant:normal;font-weight:500;font-stretch:normal;fill:#ffffff;font-family:Apple LiGothic;-inkscape-font-specification:Apple LiGothic Medium">iAR</tspan></text>
  </g>
</svg>
